{"properties":[{"id":"a1dcd59d-3ba4-4066-bfb2-843fe82a0953","name":"5-комнатный дом 188м² в Малатия-Себастия","title":"5-комнатный дом 188м² в Малатия-Себастия","address":"ул. Абовян 81, Малатия-Себастия","district":"Malatia-Sebastia","neighborhood":"Малатия-Себастия","price":130000000,"currency":"AMD","rooms":5,"bedrooms":5,"bathrooms":3,"area":188,"size_sqm":188,"floor":1,"total_floors":3,"year_built":1997,"building_type":"panel","condition":"good","description":"Отличная дом в Малатия-Себастия. Хорошее состояние. Удобное расположение, развитая инфраструктура.","features":["Лифт","Детская площадка","Интернет","Балкон","Охрана","Мебель","Техника","Центральное отопление"],"images":["https://images.unsplash.com/photo-1570129477492-45c003edd2be?w=800&q=80","https://images.unsplash.com/photo-1512917774080-9991f1c4c750?w=800&q=80","https://images.unsplash.com/photo-1600596542815-ffad4c1539a9?w=800&q=80","https://images.unsplash.com/photo-1568605114967-8130f3a36994?w=800&q=80"],"image_url":"https://images.unsplash.com/photo-1570129477492-45c003edd2be?w=800&q=80","imageUrl":"https://images.unsplash.com/photo-1570129477492-45c003edd2be?w=800&q=80","latitude":40.1525488,"longitude":44.4749434,"coordinates":{"lat":40.1525488,"lng":44.4749434},"utilities_estimate":42513,"deposit_months":2,"minimum_lease_months":0,"pets_allowed":true,"has_parking":false,"has_balcony":true,"has_virtual_tour":false,"property_type":"house","deal_type":"sale","contact":{"name":"Давид Бабаян","email":"давид.бабаян@example.com","phone":"+374 55 815408"},"nearby_pois":{"metro":"Метро - 315м","school":"Школа №159 - 140м","hospital":"Больница - 1124м","restaurant":"Рестораны - 324м","supermarket":"Супермаркет - 302м"},"available":true,"verified":false,"listing_date":"2026-06-18T21:02:12.134Z","match_score":30,"is_top_choice":true,"recommendation_reasons":["{\"en\":\"Has balcony\",\"ru\":\"Есть балкон\",\"hy\":\"Delays\"}","{\"en\":\"Pet-friendly\",\"ru\":\"Можно с животными\",\"hy\":\"Delays\"}"],"warning":"{\"en\":\"Area safety rating below average\",\"ru\":\"Рейтинг безопасности района ниже среднего\",\"hy\":\"Delays\"}"}],"total":48,"page":1,"pages":48,"limit":1}